{
  "postQuiz": {
    "quizServices": [
      "запуск рекламы"
    ],
    "quizOccupation": "s",
    "quizCompetitors": [
      "",
      "",
      ""
    ],
    "quizTerms": "через месяц",
    "quizContacts": {
      "tel": "123123122131"
    }
  },
  "contacts": {
    "tel": "+7 707 760-09-06",
    "address": "Алматы, ул. Ауэзова, 48, офис 401",
    "map_link": "https://go.2gis.com/buv5f4",
    "instagram": "https://www.instagram.com/gobigkz/",
    "telegram": "tatyanalyan",
    "whatsapp": "+7 707 760-09-06"
  },
  "quiz": {
    "title": "ОБСУДИТЬ <br> ПРОЕКТ",
    "text": "Пройдите 5 шагов, а мы составим рабочее предложение и расскажем, как организована работа.",
    "services": {
      "title": "1. Какие услуги вас интересуют?",
      "items": [
        {
          "title": "разработка сайта",
          "hint": "Задача сайта — принимать посетителей из рекламы, рассказывать о компании и получать заказы."
        },
        {
          "title": "логотип и фирменный стиль",
          "hint": "Если вы конкурируете за внимание покупателя, а преимущества неочевидны, фирменный стиль поможет выделить продукт и его особенности."
        },
        {
          "title": "запуск рекламы",
          "hint": "Хороший сайт нужно показать целевой аудитории. Интернет-реклама позволяет привлечь именно тех, кто ищет ваш продукт."
        },
        {
          "title": "рассылки и маркетинг",
          "hint": "Рассылки позволяют организовать повторные продажи действующим клиентам и тем, кто интересовался: звонил, писал, оставлял контакты."
        },
        {
          "title": "маркетинг в соцсетях",
          "hint": "Соцсети важный канал продаж, который позволит собрать и заинтересовать аудиторию, рассказать о продукте и выстроить диалог."
        },
        {
          "title": "написание текста",
          "hint": "Привлекательное и правдивое описание продукта напрямую определяет продажи — наравне с ценой и эффективной рекламой."
        }
      ]
    },
    "occupation": {
      "title": "2. Пару слов о компании"
    },
    "competitors": {
      "title": "3. конкуренты",
      "text": "Укажите ссылки, если есть компании, с кем вы конкурируете за клиента или проекты,\n      которые хотите привести как пример."
    },
    "terms": {
      "title": "4. когда хотите начать?",
      "items": [
        {
          "title": "Чем раньше, тем лучше"
        },
        {
          "title": "в течение месяца"
        },
        {
          "title": "через месяц"
        },
        {
          "title": "рассматриваю предложения"
        }
      ]
    },
    "contacts": {
      "title": "5. Контактная информация",
      "items": []
    }
  },
  "recommendation": {
    "title": "НАШИ РЕКОМЕНДАЦИИ",
    "reviews": [
      {
        "name": "Юлия <br> Овсянникова",
        "img": "/images/rec-1.jpeg",
        "title": "магазин подарков goodgift.kz",
        "title_link": "https://www.instagram.com/goodgift.kz/?hl=ru",
        "text": "Ребята увеличили средний чек и количество заказов не превышая бюджета."
      },
      {
        "name": "Азамат <br> Токтарбаев",
        "img": "/images/rec-2.jpeg",
        "title": "Руководитель сервиса онлайн-займов Dopo.kz",
        "title_link": "",
        "text": "Рекомендуем команду BIG как профессионального исполнителя в области онлайн-маркетинга и рекламы. Совместно с BIG, мы оптимизировали контекстную рекламу и снизили стоимость привлечения клиента примерно на 30%."
      },
      {
        "name": "Сергей <br> Овсянников",
        "img": "/images/rec-3.jpeg",
        "title": "Основатель сервиса бронирования Flight.kz",
        "title_link": "",
        "text": "Команда BIG взяла на себя дизайн и продвижение Flight.kz — от логотипа и социальных сетей, до интерфейса оплат и конверсионных писем. В 2015 году, Flight.kz вышел на 25 место Forbes Kazakhstan."
      },
      {
        "name": "Демиан <br> Лонг",
        "img": "/images/rec-4.jpeg",
        "title": "Школа баскетбола Drive",
        "title_link": "https://drivebasket.kz/",
        "text": "Команда BIG поддерживает школу баскетбола DRIVE более 5 лет и помогает нам с классным дизайном для наших турниров и программ."
      }
    ]
  },
  "promotion": {
    "title": "РЕКЛАМА <br> И ПРОДВИЖЕНИЕ",
    "text": "Наша цель — система, в которой бизнес получает клиентов, а владелец видит стоимость каждого шага воронки продаж: от посещения сайта, до стоимости получения повторного заказа.",
    "banner": [
      "Реклама в Google и Яндекс",
      "Реклама в социальных сетях",
      "Реклама в CPA-сетях",
      "Аналитика",
      "АБ-тестирование"
    ],
    "services": [
      {
        "title": "АНАЛИЗ РЕКЛАМЫ <br> КОНКУРЕНТОВ",
        "text": "Вы будете знать, какие предложения получают клиенты, делая выбор."
      },
      {
        "title": "ОТЧЕТ ПО КОНВЕРСИЯМ <br> ВАШЕГО САЙТА",
        "text": "Мы проведем аудит проекта на удобство и его возможности по достижению конверсий."
      },
      {
        "title": "РЕКОМЕНДАЦИИ ПО <br> ОПТИМИЗАЦИИ",
        "text": "Мы подскажем, как повысить результаты сайта и что для этого нужно сделать."
      },
      {
        "title": "СИСТЕМА <br> АНАЛИТИКИ",
        "text": "Вы сможете оценивать эффективность рекламы и поведение посетителей."
      }
    ],
    "products": [
      {
        "title": "2000 звонков",
        "img": "/images/prom-1.svg",
        "text": "за месяц для производителя пластиковых окон при стоимости звонка 0,12$"
      },
      {
        "title": "0,25$ за клик",
        "img": "/images/prom-2.svg",
        "text": "и снижение стоимости за посещение из контекстной рекламы на 25% для Dopo.kz"
      },
      {
        "title": "+35%",
        "img": "/images/prom-3.svg",
        "text": "посещений в месяц после оптимизации рекламной кампании производителя пластиковых окон Arsi.kz"
      },
      {
        "title": "75 заказов",
        "img": "/images/prom-4.svg",
        "text": "в месяц для сервиса корпоративных подарков GoodGift.kz + 50% прирост к посещаемости без увеличения бюджета"
      }
    ]
  },
  "development": {
    "title": "РАЗРАБОТКА <br> САЙТОВ",
    "text": "Мы проектируем и выпускаем сайты, которые помогают продавать, рассказывают об услугах и упрощают рабочие процессы. <br><br> Поможем бизнесу запуститься в онлайне, рассказать о себе и привлечь клиентов.",
    "products": [
      {
        "id": 1,
        "title": "Интерфейс DOPO.KZ",
        "text": "Разработали интерфейс и личный кабинет, который упрощает подачу и обработку заявки сервиса онлайн-кредитования.",
        "img": "/images/dev-1.jpeg",
        "url": "https://www.instagram.com/p/B15tN2rlopU/?igshid=vypzytvfrvo2"
      },
      {
        "id": 2,
        "title": "НАДЕЖНЫЕ ОКНА",
        "text": "Разработали сайт и брендинг, провели фотосессию и описали продукцию «Надежных Окон» — дочерней компании Arsi Group.",
        "img": "/images/dev-2.jpeg",
        "url": "https://www.instagram.com/p/B0BIvTflpT_/"
      },
      {
        "id": 3,
        "title": "Спортивный клуб «Brave»",
        "text": "Промо-сайт рассказывает о концепции клуба и конвертирует посетителей в запись на бесплатную тренировку, покупку абонемента и спарринг.",
        "img": "/images/dev-3.jpeg",
        "url": "https://www.instagram.com/p/B18iBv1FFM_/?igshid=v22uob0cb1t3"
      },
      {
        "id": 4,
        "title": "Жилой комплекс «Евразия»",
        "text": "Запустили соцсети и промо-сайт, нацеленный презентацию комплекса, инфраструктуры и старт продаж.",
        "img": "/images/dev-4.jpeg",
        "url": "https://www.instagram.com/p/B1gNYoqlIOI/"
      }
    ],
    "services": [
      {
        "id": 1,
        "title": "гарантия <br> 12 месяцев",
        "text": "Два месяца бесплатной поддержки. Поможем с развитием и поддержкой проекта."
      },
      {
        "id": 2,
        "title": "мобильная <br> версия",
        "text": "Сайт будет хорошо выглядеть и работать на смартфонах и планшетах."
      },
      {
        "id": 3,
        "title": "маркетинговый <br> анализ",
        "text": "Вникнем в рабочие процессы, изучим продукт и возможности конкурентов."
      },
      {
        "id": 4,
        "title": "система <br> аналитики",
        "text": "Вы сможете оценивать эффективность рекламы и поведение посетителей."
      }
    ]
  },
  "marketing": {
    "title": "МАРКЕТИНГ",
    "text": "Маркетинг снижает стоимость привлечения клиентов, увеличивает средний чек и создает повторные продажи. <br><br> Мы помогаем изучить и сегментировать аудиторию, сформулировать рекламные предложения, организовать привлечение и обработку заказов.",
    "products": [
      {
        "id": 1,
        "text": "Разработали интерфейс и личный кабинет, который упрощает подачу и обработку заявки сервиса онлайн-кредитования.",
        "img": "/images/mar-1.jpeg",
        "url": "https://www.instagram.com/p/BzK0HjGh1l9/?utm_source=ig_web_copy_link"
      },
      {
        "id": 2,
        "text": "Разработали сайт и брендинг, провели фотосессию и описали продукцию «Надежных Окон» — дочерней компании Arsi Group.",
        "img": "/images/mar-2.jpeg",
        "url": "https://www.instagram.com/p/BzPS-WyBopn/"
      },
      {
        "id": 3,
        "text": "Промо-сайт рассказывает о концепции клуба и конвертирует посетителей в запись на бесплатную тренировку, покупку абонемента и спарринг.",
        "img": "/images/mar-3.jpeg",
        "url": ""
      },
      {
        "id": 4,
        "text": "Запустили соцсети и промо-сайт, нацеленный презентацию комплекса, инфраструктуры и старт продаж.",
        "img": "/images/mar-4.jpeg",
        "url": ""
      }
    ],
    "services": [
      "Email-маркетинг",
      "SMS-рассылки",
      "Маркетинг в соцсетях",
      "Графический дизайн",
      "Фирменный стиль",
      "Текст для бизнеса"
    ]
  }
}